{
  "project_info": {
    "project_number": "291036873359",
    "firebase_url": "https://crazyeats-218412.firebaseio.com",
    "project_id": "crazyeats-218412",
    "storage_bucket": "crazyeats-218412.appspot.com"
  },
  "client": [
    {
      "client_info": {
        "mobilesdk_app_id": "1:291036873359:android:50fdc80bfe138784",
        "android_client_info": {
          "package_name": "com.crazyeat"
        }
      },
      "oauth_client": [
        {
          "client_id": "291036873359-psqsfb5j67cdemrshr61k92lfhp523m7.apps.googleusercontent.com",
          "client_type": 3
        }
      ],
      "api_key": [
        {
          "current_key": "AIzaSyDg6vvC0u8xYelhF2H_0de0GtuEqLsHsdU"
        }
      ],
      "services": {
        "analytics_service": {
          "status": 1
        },
        "appinvite_service": {
          "status": 1,
          "other_platform_oauth_client": []
        },
        "ads_service": {
          "status": 2
        }
      }
    }
  ],
  "configuration_version": "1"
}